^C:\USERS\HYPERPC\SOURCE\REPOS\HW_16\DEBUG\HW_16.OBJ
C:\USERS\HYPERPC\SOURCE\REPOS\HW_16\DEBUG\HW_16.EXE
C:\USERS\HYPERPC\SOURCE\REPOS\HW_16\DEBUG\HW_16.ILK
C:\USERS\HYPERPC\SOURCE\REPOS\HW_16\DEBUG\HW_16.PDB
